{
  "over090": {
    "profit": -13425,
    "totalGames": 2542,
    "gamesWon": 1299,
    "gamesLost": 1243,
    "winRate": "51.10%",
    "profitBetOnHundredGames": -528.1274586939418,
    "averageOdds": 1.9311487018095956
  },
  "over095": {
    "profit": -13751,
    "totalGames": 1898,
    "gamesWon": 941,
    "gamesLost": 957,
    "winRate": "49.58%",
    "profitBetOnHundredGames": -724.4994731296101,
    "averageOdds": 1.9440990516333012
  },
  "over0": {
    "profit": -12165,
    "totalGames": 1182,
    "gamesWon": 558,
    "gamesLost": 624,
    "winRate": "47.21%",
    "profitBetOnHundredGames": -1029.1878172588833,
    "averageOdds": 1.9749576988155657
  },
  "over5": {
    "profit": -3647,
    "totalGames": 646,
    "gamesWon": 314,
    "gamesLost": 332,
    "winRate": "48.61%",
    "profitBetOnHundredGames": -564.5510835913313,
    "averageOdds": 1.9980650154798765
  },
  "over10": {
    "profit": -1787,
    "totalGames": 267,
    "gamesWon": 127,
    "gamesLost": 140,
    "winRate": "47.57%",
    "profitBetOnHundredGames": -669.2883895131087,
    "averageOdds": 2.0069288389513127
  },
  "over15": {
    "profit": -472,
    "totalGames": 84,
    "gamesWon": 40,
    "gamesLost": 44,
    "winRate": "47.62%",
    "profitBetOnHundredGames": -561.9047619047619,
    "averageOdds": 2.046547619047618
  },
  "under095": {
    "profit": -19941,
    "totalGames": 2083,
    "gamesWon": 943,
    "gamesLost": 1140,
    "winRate": "45.27%",
    "profitBetOnHundredGames": -957.3211713874219,
    "averageOdds": 2.114685549687947
  },
  "under090": {
    "profit": -20686,
    "totalGames": 2660,
    "gamesWon": 1246,
    "gamesLost": 1414,
    "winRate": "46.84%",
    "profitBetOnHundredGames": -777.6691729323308,
    "averageOdds": 2.0870451127819463
  },
  "under0": {
    "profit": -14381,
    "totalGames": 1357,
    "gamesWon": 595,
    "gamesLost": 762,
    "winRate": "43.85%",
    "profitBetOnHundredGames": -1059.7641857037584,
    "averageOdds": 2.174473102431826
  },
  "under5": {
    "profit": -6038,
    "totalGames": 736,
    "gamesWon": 320,
    "gamesLost": 416,
    "winRate": "43.48%",
    "profitBetOnHundredGames": -820.3804347826086,
    "averageOdds": 2.2561413043478247
  },
  "under10": {
    "profit": -2207,
    "totalGames": 335,
    "gamesWon": 141,
    "gamesLost": 194,
    "winRate": "42.09%",
    "profitBetOnHundredGames": -658.8059701492537,
    "averageOdds": 2.352686567164182
  },
  "under15": {
    "profit": 28,
    "totalGames": 119,
    "gamesWon": 50,
    "gamesLost": 69,
    "winRate": "42.02%",
    "profitBetOnHundredGames": 23.529411764705884,
    "averageOdds": 2.5372268907563034
  },
  "overBetween090And095": {
    "profit": 326,
    "totalGames": 644,
    "gamesWon": 358,
    "gamesLost": 286,
    "winRate": "55.59%",
    "profitBetOnHundredGames": 50.62111801242236,
    "averageOdds": 1.892981366459629
  },
  "overBetween095And0": {
    "profit": -1636,
    "totalGames": 712,
    "gamesWon": 381,
    "gamesLost": 331,
    "winRate": "53.51%",
    "profitBetOnHundredGames": -229.77528089887642,
    "averageOdds": 1.8915028089887647
  },
  "overBetween0And5": {
    "profit": -8518,
    "totalGames": 536,
    "gamesWon": 244,
    "gamesLost": 292,
    "winRate": "45.52%",
    "profitBetOnHundredGames": -1589.179104477612,
    "averageOdds": 1.9471082089552258
  },
  "overBetween5And10": {
    "profit": -1860,
    "totalGames": 375,
    "gamesWon": 185,
    "gamesLost": 190,
    "winRate": "49.33%",
    "profitBetOnHundredGames": -496,
    "averageOdds": 1.990400000000001
  },
  "overBetween10And15": {
    "profit": -1315,
    "totalGames": 183,
    "gamesWon": 87,
    "gamesLost": 96,
    "winRate": "47.54%",
    "profitBetOnHundredGames": -718.5792349726777,
    "averageOdds": 1.9887431693989075
  },
  "underBetween090And095": {
    "profit": -745,
    "totalGames": 577,
    "gamesWon": 303,
    "gamesLost": 274,
    "winRate": "52.51%",
    "profitBetOnHundredGames": -129.1161178509532,
    "averageOdds": 1.9872616984402094
  },
  "underBetween095And0": {
    "profit": -5460,
    "totalGames": 725,
    "gamesWon": 348,
    "gamesLost": 377,
    "winRate": "48.00%",
    "profitBetOnHundredGames": -753.1034482758621,
    "averageOdds": 2.002937931034486
  },
  "underBetween0And5": {
    "profit": -8343,
    "totalGames": 621,
    "gamesWon": 275,
    "gamesLost": 346,
    "winRate": "44.28%",
    "profitBetOnHundredGames": -1343.4782608695652,
    "averageOdds": 2.0776811594202904
  },
  "underBetween5And10": {
    "profit": -3731,
    "totalGames": 400,
    "gamesWon": 179,
    "gamesLost": 221,
    "winRate": "44.75%",
    "profitBetOnHundredGames": -932.75,
    "averageOdds": 2.175925000000002
  },
  "underBetween10And15": {
    "profit": -2235,
    "totalGames": 216,
    "gamesWon": 91,
    "gamesLost": 125,
    "winRate": "42.13%",
    "profitBetOnHundredGames": -1034.7222222222222,
    "averageOdds": 2.2510185185185208
  },
  "odds141to185over090": {
    "profit": -694,
    "totalGames": 1026,
    "gamesWon": 623,
    "gamesLost": 403,
    "winRate": "60.72%",
    "profitBetOnHundredGames": -67.64132553606237,
    "averageOdds": 1.6410526315789484
  },
  "odds141to185over095": {
    "profit": -2722,
    "totalGames": 735,
    "gamesWon": 433,
    "gamesLost": 302,
    "winRate": "58.91%",
    "profitBetOnHundredGames": -370.3401360544218,
    "averageOdds": 1.6436734693877582
  },
  "odds141to185over0": {
    "profit": -3548,
    "totalGames": 432,
    "gamesWon": 241,
    "gamesLost": 191,
    "winRate": "55.79%",
    "profitBetOnHundredGames": -821.2962962962963,
    "averageOdds": 1.6568518518518545
  },
  "odds141to185over5": {
    "profit": -2893,
    "totalGames": 225,
    "gamesWon": 118,
    "gamesLost": 107,
    "winRate": "52.44%",
    "profitBetOnHundredGames": -1285.7777777777776,
    "averageOdds": 1.6723111111111146
  },
  "odds141to185over10": {
    "profit": -1475,
    "totalGames": 88,
    "gamesWon": 44,
    "gamesLost": 44,
    "winRate": "50.00%",
    "profitBetOnHundredGames": -1676.1363636363637,
    "averageOdds": 1.6765909090909086
  },
  "odds141to185over15": {
    "profit": -76,
    "totalGames": 21,
    "gamesWon": 12,
    "gamesLost": 9,
    "winRate": "57.14%",
    "profitBetOnHundredGames": -361.9047619047619,
    "averageOdds": 1.6866666666666663
  },
  "odds141to185under090": {
    "profit": -3650,
    "totalGames": 958,
    "gamesWon": 561,
    "gamesLost": 397,
    "winRate": "58.56%",
    "profitBetOnHundredGames": -381.00208768267225,
    "averageOdds": 1.6521816283924828
  },
  "odds141to185under095": {
    "profit": -5245,
    "totalGames": 706,
    "gamesWon": 398,
    "gamesLost": 308,
    "winRate": "56.37%",
    "profitBetOnHundredGames": -742.9178470254958,
    "averageOdds": 1.654518413597734
  },
  "odds141to185under0": {
    "profit": -2877,
    "totalGames": 408,
    "gamesWon": 230,
    "gamesLost": 178,
    "winRate": "56.37%",
    "profitBetOnHundredGames": -705.1470588235294,
    "averageOdds": 1.659142156862746
  },
  "odds141to185under5": {
    "profit": -2227,
    "totalGames": 185,
    "gamesWon": 98,
    "gamesLost": 87,
    "winRate": "52.97%",
    "profitBetOnHundredGames": -1203.7837837837837,
    "averageOdds": 1.6674054054054075
  },
  "odds141to185under10": {
    "profit": -1012,
    "totalGames": 67,
    "gamesWon": 34,
    "gamesLost": 33,
    "winRate": "50.75%",
    "profitBetOnHundredGames": -1510.44776119403,
    "averageOdds": 1.6764179104477606
  },
  "odds141to185under15": {
    "profit": -218,
    "totalGames": 14,
    "gamesWon": 7,
    "gamesLost": 7,
    "winRate": "50.00%",
    "profitBetOnHundredGames": -1557.1428571428573,
    "averageOdds": 1.6992857142857143
  },
  "odds141to185overBetween090And095": {
    "profit": 2028,
    "totalGames": 291,
    "gamesWon": 190,
    "gamesLost": 101,
    "winRate": "65.29%",
    "profitBetOnHundredGames": 696.9072164948453,
    "averageOdds": 1.6344329896907226
  },
  "odds141to185overBetween095And0": {
    "profit": 2671,
    "totalGames": 796,
    "gamesWon": 506,
    "gamesLost": 290,
    "winRate": "63.57%",
    "profitBetOnHundredGames": 335.55276381909545,
    "averageOdds": 1.630690954773872
  },
  "odds141to185overBetween0And5": {
    "profit": -655,
    "totalGames": 207,
    "gamesWon": 123,
    "gamesLost": 84,
    "winRate": "59.42%",
    "profitBetOnHundredGames": -316.42512077294685,
    "averageOdds": 1.6400483091787457
  },
  "odds141to185overBetween5And10": {
    "profit": -1418,
    "totalGames": 137,
    "gamesWon": 74,
    "gamesLost": 63,
    "winRate": "54.01%",
    "profitBetOnHundredGames": -1035.036496350365,
    "averageOdds": 1.669562043795621
  },
  "odds141to185overBetween10And15": {
    "profit": -1399,
    "totalGames": 67,
    "gamesWon": 32,
    "gamesLost": 35,
    "winRate": "47.76%",
    "profitBetOnHundredGames": -2088.0597014925374,
    "averageOdds": 1.6734328358208947
  },
  "odds141to185underBetween090And095": {
    "profit": 1595,
    "totalGames": 252,
    "gamesWon": 163,
    "gamesLost": 89,
    "winRate": "64.68%",
    "profitBetOnHundredGames": 632.936507936508,
    "averageOdds": 1.645634920634922
  },
  "odds141to185underBetween095And0": {
    "profit": -2368,
    "totalGames": 298,
    "gamesWon": 168,
    "gamesLost": 130,
    "winRate": "56.38%",
    "profitBetOnHundredGames": -794.6308724832215,
    "averageOdds": 1.6481879194630906
  },
  "odds141to185underBetween0And5": {
    "profit": -650,
    "totalGames": 223,
    "gamesWon": 132,
    "gamesLost": 91,
    "winRate": "59.19%",
    "profitBetOnHundredGames": -291.4798206278027,
    "averageOdds": 1.6522869955156962
  },
  "odds141to185underBetween5And10": {
    "profit": -1215,
    "totalGames": 118,
    "gamesWon": 64,
    "gamesLost": 54,
    "winRate": "54.24%",
    "profitBetOnHundredGames": -1029.6610169491526,
    "averageOdds": 1.6622881355932204
  },
  "odds141to185underBetween10And15": {
    "profit": -794,
    "totalGames": 53,
    "gamesWon": 27,
    "gamesLost": 26,
    "winRate": "50.94%",
    "profitBetOnHundredGames": -1498.1132075471698,
    "averageOdds": 1.6703773584905655
  }
}